module gitlab.com/therealryanbonham/unicreds

go 1.14

require (
	github.com/alecthomas/template v0.0.0-20190718012654-fb15b899a751 // indirect
	github.com/alecthomas/units v0.0.0-20190924025748-f65c72e2690d // indirect
	github.com/apex/log v1.6.0
	github.com/aws/aws-sdk-go v1.33.12
	github.com/olekukonko/tablewriter v0.0.4
	github.com/stretchr/testify v1.6.1
	gopkg.in/alecthomas/kingpin.v2 v2.2.6

)
